<?xml version="1.0" encoding="UTF-8"?>
<svg width="23px" height="39px" viewBox="0 0 23 39" version="1.1" xmlns="http://www.w3.org/2000/svg" xmlns:xlink="http://www.w3.org/1999/xlink">
    <!-- Generator: Sketch 47.1 (45422) - http://www.bohemiancoding.com/sketch -->
    <title>Group 4</title>
    <desc>Created with Sketch.</desc>
    <defs></defs>
    <g id="Page-1" stroke="none" stroke-width="1" fill="none" fill-rule="evenodd">
        <g id="01-HOME-PAGE-VOISIN" transform="translate(-1027.000000, -389.000000)">
            <g id="Group-4" transform="translate(1027.000000, 389.000000)">
                <path d="M9.46467879,27.4361941 L14.0752074,27.4361941 L14.0752074,22.8780639 L12.5337897,21.3305559 L14.0752074,19.7520461 L14.0752074,11.0741171 L9.46467879,11.0741171 L9.46467879,15.6322473 L11.0060964,17.1797553 L9.46467879,18.7582652 L9.46467879,27.4361941 Z M14.9329801,28.2973561 L8.60690603,28.2973561 L8.60690603,18.4069111 L9.79921017,17.1857834 L8.60690603,15.9887683 L8.60690603,10.2129552 L14.9329801,10.2129552 L14.9329801,20.1034001 L13.740676,21.3245278 L14.9329801,22.5215429 L14.9329801,28.2973561 Z" id="Fill-1" fill="#FFFFFF"></path>
                <rect id="Rectangle" stroke="#FFFFFF" x="0.958212058" y="0.947916667" width="21.2835759" height="36.625"></rect>
            </g>
        </g>
    </g>
</svg>