<?xml version="1.0" encoding="UTF-8"?>
<svg width="592px" height="828px" viewBox="0 0 592 828" version="1.1" xmlns="http://www.w3.org/2000/svg" xmlns:xlink="http://www.w3.org/1999/xlink">
    <!-- Generator: Sketch 47.1 (45422) - http://www.bohemiancoding.com/sketch -->
    <title>Combined Shape</title>
    <desc>Created with Sketch.</desc>
    <defs>
        <linearGradient x1="50%" y1="10.4649811%" x2="47.9856799%" y2="137.319504%" id="linearGradient-1">
            <stop stop-color="#E4E4E4" stop-opacity="0.256283967" offset="0%"></stop>
            <stop stop-color="#666666" stop-opacity="0.328294837" offset="100%"></stop>
        </linearGradient>
    </defs>
    <g id="Page-1" stroke="none" stroke-width="1" fill="none" fill-rule="evenodd" opacity="0.245414402">
        <g id="02-MENU-OPEN" transform="translate(-424.000000, 0.000000)" fill="url(#linearGradient-1)">
            <g id="Page-1" transform="translate(353.000000, -201.000000)">
                <path d="M367.087096,721.316074 L624.214689,0 L734.174193,0 L372.0454,1016 L367.174193,1028.83451 L367.087096,875.197458 L367,1028.83451 L362.128793,1016 L0,0 L109.959504,0 L367.087096,721.316074 Z" id="Combined-Shape"></path>
            </g>
        </g>
    </g>
</svg>