<?xml version="1.0" encoding="UTF-8"?>
<svg width="23px" height="29px" viewBox="0 0 23 29" version="1.1" xmlns="http://www.w3.org/2000/svg" xmlns:xlink="http://www.w3.org/1999/xlink">
    <!-- Generator: Sketch 47.1 (45422) - http://www.bohemiancoding.com/sketch -->
    <title>Page 1</title>
    <desc>Created with Sketch.</desc>
    <defs></defs>
    <g id="Symbols" stroke="none" stroke-width="1" fill="none" fill-rule="evenodd">
        <g id="HEADER-LEFT" transform="translate(-20.000000, -23.000000)" fill="#FEFEFE">
            <g id="Group-4">
                <g transform="translate(1.000000, 0.000000)">
                    <polygon id="Page-1" points="38.0421516 23 30.4966056 43.0135411 22.2264111 23 19 23 30.6446984 51.1788703 41.2700005 23"></polygon>
                </g>
            </g>
        </g>
    </g>
</svg>
